%!PS-Adobe-2.0
%%Title: api-map.fig
%%Creator: fig2dev Version 3.2 Patchlevel 5
%%CreationDate: Fri Oct 11 17:45:14 2013
%%For: martin@oort (Martin Heemskerk,SP.C4.105,+31 20 525 7475,,)
%%Orientation: Landscape
%%Pages: 1
%%BoundingBox: 0 0 595 842
%%DocumentPaperSizes: a4
%%BeginSetup
[{
%%BeginFeature: *PageRegion A4
<</PageSize [595 842]>> setpagedevice
%%EndFeature
} stopped cleartomark
%%EndSetup
%Magnification: 1.0000
%%EndComments
/$F2psDict 200 dict def
$F2psDict begin
$F2psDict /mtrx matrix put
/col-1 {0 setgray} bind def
/col0 {0.000 0.000 0.000 srgb} bind def
/col1 {0.000 0.000 1.000 srgb} bind def
/col2 {0.000 1.000 0.000 srgb} bind def
/col3 {0.000 1.000 1.000 srgb} bind def
/col4 {1.000 0.000 0.000 srgb} bind def
/col5 {1.000 0.000 1.000 srgb} bind def
/col6 {1.000 1.000 0.000 srgb} bind def
/col7 {1.000 1.000 1.000 srgb} bind def
/col8 {0.000 0.000 0.560 srgb} bind def
/col9 {0.000 0.000 0.690 srgb} bind def
/col10 {0.000 0.000 0.820 srgb} bind def
/col11 {0.530 0.810 1.000 srgb} bind def
/col12 {0.000 0.560 0.000 srgb} bind def
/col13 {0.000 0.690 0.000 srgb} bind def
/col14 {0.000 0.820 0.000 srgb} bind def
/col15 {0.000 0.560 0.560 srgb} bind def
/col16 {0.000 0.690 0.690 srgb} bind def
/col17 {0.000 0.820 0.820 srgb} bind def
/col18 {0.560 0.000 0.000 srgb} bind def
/col19 {0.690 0.000 0.000 srgb} bind def
/col20 {0.820 0.000 0.000 srgb} bind def
/col21 {0.560 0.000 0.560 srgb} bind def
/col22 {0.690 0.000 0.690 srgb} bind def
/col23 {0.820 0.000 0.820 srgb} bind def
/col24 {0.500 0.190 0.000 srgb} bind def
/col25 {0.630 0.250 0.000 srgb} bind def
/col26 {0.750 0.380 0.000 srgb} bind def
/col27 {1.000 0.500 0.500 srgb} bind def
/col28 {1.000 0.630 0.630 srgb} bind def
/col29 {1.000 0.750 0.750 srgb} bind def
/col30 {1.000 0.880 0.880 srgb} bind def
/col31 {1.000 0.840 0.000 srgb} bind def
/col32 {0.612 0.000 0.000 srgb} bind def
/col33 {0.549 0.549 0.549 srgb} bind def
/col34 {0.549 0.549 0.549 srgb} bind def
/col35 {0.259 0.259 0.259 srgb} bind def
/col36 {0.549 0.549 0.549 srgb} bind def
/col37 {0.259 0.259 0.259 srgb} bind def
/col38 {0.549 0.549 0.549 srgb} bind def
/col39 {0.259 0.259 0.259 srgb} bind def
/col40 {0.549 0.549 0.549 srgb} bind def
/col41 {0.259 0.259 0.259 srgb} bind def
/col42 {0.549 0.549 0.549 srgb} bind def
/col43 {0.259 0.259 0.259 srgb} bind def

end
save
newpath 0 842 moveto 0 0 lineto 595 0 lineto 595 842 lineto closepath clip newpath
0.5 3.0 translate

/cp {closepath} bind def
/ef {eofill} bind def
/gr {grestore} bind def
/gs {gsave} bind def
/sa {save} bind def
/rs {restore} bind def
/l {lineto} bind def
/m {moveto} bind def
/rm {rmoveto} bind def
/n {newpath} bind def
/s {stroke} bind def
/sh {show} bind def
/slc {setlinecap} bind def
/slj {setlinejoin} bind def
/slw {setlinewidth} bind def
/srgb {setrgbcolor} bind def
/rot {rotate} bind def
/sc {scale} bind def
/sd {setdash} bind def
/ff {findfont} bind def
/sf {setfont} bind def
/scf {scalefont} bind def
/sw {stringwidth} bind def
/tr {translate} bind def
/tnt {dup dup currentrgbcolor
  4 -2 roll dup 1 exch sub 3 -1 roll mul add
  4 -2 roll dup 1 exch sub 3 -1 roll mul add
  4 -2 roll dup 1 exch sub 3 -1 roll mul add srgb}
  bind def
/shd {dup dup currentrgbcolor 4 -2 roll mul 4 -2 roll mul
  4 -2 roll mul srgb} bind def
/reencdict 12 dict def /ReEncode { reencdict begin
/newcodesandnames exch def /newfontname exch def /basefontname exch def
/basefontdict basefontname findfont def /newfont basefontdict maxlength dict def
basefontdict { exch dup /FID ne { dup /Encoding eq
{ exch dup length array copy newfont 3 1 roll put }
{ exch newfont 3 1 roll put } ifelse } { pop pop } ifelse } forall
newfont /FontName newfontname put newcodesandnames aload pop
128 1 255 { newfont /Encoding get exch /.notdef put } for
newcodesandnames length 2 idiv { newfont /Encoding get 3 1 roll put } repeat
newfontname newfont definefont pop end } def
/isovec [
8#055 /minus 8#200 /grave 8#201 /acute 8#202 /circumflex 8#203 /tilde
8#204 /macron 8#205 /breve 8#206 /dotaccent 8#207 /dieresis
8#210 /ring 8#211 /cedilla 8#212 /hungarumlaut 8#213 /ogonek 8#214 /caron
8#220 /dotlessi 8#230 /oe 8#231 /OE
8#240 /space 8#241 /exclamdown 8#242 /cent 8#243 /sterling
8#244 /currency 8#245 /yen 8#246 /brokenbar 8#247 /section 8#250 /dieresis
8#251 /copyright 8#252 /ordfeminine 8#253 /guillemotleft 8#254 /logicalnot
8#255 /hyphen 8#256 /registered 8#257 /macron 8#260 /degree 8#261 /plusminus
8#262 /twosuperior 8#263 /threesuperior 8#264 /acute 8#265 /mu 8#266 /paragraph
8#267 /periodcentered 8#270 /cedilla 8#271 /onesuperior 8#272 /ordmasculine
8#273 /guillemotright 8#274 /onequarter 8#275 /onehalf
8#276 /threequarters 8#277 /questiondown 8#300 /Agrave 8#301 /Aacute
8#302 /Acircumflex 8#303 /Atilde 8#304 /Adieresis 8#305 /Aring
8#306 /AE 8#307 /Ccedilla 8#310 /Egrave 8#311 /Eacute
8#312 /Ecircumflex 8#313 /Edieresis 8#314 /Igrave 8#315 /Iacute
8#316 /Icircumflex 8#317 /Idieresis 8#320 /Eth 8#321 /Ntilde 8#322 /Ograve
8#323 /Oacute 8#324 /Ocircumflex 8#325 /Otilde 8#326 /Odieresis 8#327 /multiply
8#330 /Oslash 8#331 /Ugrave 8#332 /Uacute 8#333 /Ucircumflex
8#334 /Udieresis 8#335 /Yacute 8#336 /Thorn 8#337 /germandbls 8#340 /agrave
8#341 /aacute 8#342 /acircumflex 8#343 /atilde 8#344 /adieresis 8#345 /aring
8#346 /ae 8#347 /ccedilla 8#350 /egrave 8#351 /eacute
8#352 /ecircumflex 8#353 /edieresis 8#354 /igrave 8#355 /iacute
8#356 /icircumflex 8#357 /idieresis 8#360 /eth 8#361 /ntilde 8#362 /ograve
8#363 /oacute 8#364 /ocircumflex 8#365 /otilde 8#366 /odieresis 8#367 /divide
8#370 /oslash 8#371 /ugrave 8#372 /uacute 8#373 /ucircumflex
8#374 /udieresis 8#375 /yacute 8#376 /thorn 8#377 /ydieresis] def
/Times-Bold /Times-Bold-iso isovec ReEncode
/Times-Roman /Times-Roman-iso isovec ReEncode
/$F2psBegin {$F2psDict begin /$F2psEnteredState save def} def
/$F2psEnd {$F2psEnteredState restore end} def

$F2psBegin
10 setmiterlimit
0 slj 0 slc
 0.06000 0.06000 sc
%%Page: 1 1
%%BeginPageSetup
 90 rotate
1 -1 scale
%%EndPageSetup
%
% Fig objects follow
%
% 
% here starts figure with depth 100
% Polyline
0 slj
0 slc
7.500 slw
n 8721 8990 m 8544 8990 l 8831 9277 l 9116 8990 l 8939 8990 l 8939 8571 l
 9116 8571 l 8831 8285 l 8544 8571 l 8721 8571 l
 cp gs col7 1.00 shd ef gr gs col0 s gr 
% Polyline
n 7521 1340 m 7344 1340 l 7631 1627 l 7916 1340 l 7739 1340 l 7739 921 l
 7916 921 l 7631 635 l 7344 921 l 7521 921 l
 cp gs col7 1.00 shd ef gr gs col0 s gr 
% here ends figure;
% 
% here starts figure with depth 30
% Polyline
0 slj
0 slc
15.000 slw
n 1500 1650 m 2550 1650 l 2550 2700 l 1500 2700 l
 cp gs col0 s gr 
% Polyline
n 1500 2700 m 2250 2700 l 2250 3450 l 1500 3450 l
 cp gs col0 s gr 
% Polyline
n 1500 3450 m 2250 3450 l 2250 4200 l 1500 4200 l
 cp gs col0 s gr 
% Polyline
n 1500 4200 m 2250 4200 l 2250 4950 l 1500 4950 l
 cp gs col0 s gr 
% Polyline
n 1500 4950 m 2250 4950 l 2250 5700 l 1500 5700 l
 cp gs col0 s gr 
% Polyline
n 1500 5700 m 2250 5700 l 2250 6450 l 1500 6450 l
 cp gs col0 s gr 
% Polyline
n 1500 6450 m 2250 6450 l 2250 7200 l 1500 7200 l
 cp gs col0 s gr 
% Polyline
n 1500 7200 m 2550 7200 l 2550 8250 l 1500 8250 l
 cp gs col0 s gr 
% Polyline
n 450 1950 m 1200 1950 l 1200 2700 l 450 2700 l
 cp gs col0 s gr 
% Polyline
n 450 2700 m 1200 2700 l 1200 3450 l 450 3450 l
 cp gs col0 s gr 
% Polyline
n 450 3450 m 1200 3450 l 1200 4200 l 450 4200 l
 cp gs col0 s gr 
% Polyline
n 450 4200 m 1200 4200 l 1200 4950 l 450 4950 l
 cp gs col0 s gr 
% Polyline
n 450 4950 m 1200 4950 l 1200 5700 l 450 5700 l
 cp gs col0 s gr 
% Polyline
n 450 5700 m 1200 5700 l 1200 6450 l 450 6450 l
 cp gs col0 s gr 
% Polyline
n 450 6450 m 1200 6450 l 1200 7200 l 450 7200 l
 cp gs col0 s gr 
% Polyline
n 450 7200 m 1200 7200 l 1200 7950 l 450 7950 l
 cp gs col0 s gr 
% Polyline
n 1725 9300 m 450 9300 l 450 7950 l 1200 7950 l 1200 8550 l 1800 8550 l
 1800 9300 l
 cp gs col0 s gr 
% Polyline
n 450 1875 m 450 600 l 1800 600 l 1800 1350 l 1200 1350 l 1200 1950 l
 450 1950 l
 cp gs col0 s gr 
% Polyline
n 2550 7500 m 3300 7500 l 3300 8250 l 2550 8250 l
 cp gs col0 s gr 
% Polyline
n 3300 7500 m 4050 7500 l 4050 8250 l 3300 8250 l
 cp gs col0 s gr 
% Polyline
n 4050 7500 m 4800 7500 l 4800 8250 l 4050 8250 l
 cp gs col0 s gr 
% Polyline
n 4800 7500 m 5550 7500 l 5550 8250 l 4800 8250 l
 cp gs col0 s gr 
% Polyline
n 5550 7500 m 6300 7500 l 6300 8250 l 5550 8250 l
 cp gs col0 s gr 
% Polyline
n 6300 7500 m 7050 7500 l 7050 8250 l 6300 8250 l
 cp gs col0 s gr 
% Polyline
n 7050 7500 m 7800 7500 l 7800 8250 l 7050 8250 l
 cp gs col0 s gr 
% Polyline
n 7800 7500 m 8550 7500 l 8550 8250 l 7800 8250 l
 cp gs col0 s gr 
% Polyline
n 8550 7500 m 9150 7500 l 9150 8250 l 8550 8250 l
 cp gs col0 s gr 
% Polyline
n 9150 7500 m 9750 7500 l 9750 8250 l 9150 8250 l
 cp gs col0 s gr 
% Polyline
n 9750 7500 m 10350 7500 l 10350 8250 l 9750 8250 l
 cp gs col0 s gr 
% Polyline
n 10350 7500 m 10950 7500 l 10950 8250 l 10350 8250 l
 cp gs col0 s gr 
% Polyline
n 10950 7500 m 11700 7500 l 11700 8250 l 10950 8250 l
 cp gs col0 s gr 
% Polyline
n 11700 7500 m 12450 7500 l 12450 8250 l 11700 8250 l
 cp gs col0 s gr 
% Polyline
n 2550 1650 m 3300 1650 l 3300 2400 l 2550 2400 l
 cp gs col0 s gr 
% Polyline
n 3300 1650 m 3900 1650 l 3900 2400 l 3300 2400 l
 cp gs col0 s gr 
% Polyline
n 3900 1650 m 4500 1650 l 4500 2400 l 3900 2400 l
 cp gs col0 s gr 
% Polyline
n 4500 1650 m 5100 1650 l 5100 2400 l 4500 2400 l
 cp gs col0 s gr 
% Polyline
n 5100 1650 m 5850 1650 l 5850 2400 l 5100 2400 l
 cp gs col0 s gr 
% Polyline
n 5850 1650 m 6600 1650 l 6600 2400 l 5850 2400 l
 cp gs col0 s gr 
% Polyline
n 8700 1650 m 9450 1650 l 9450 2400 l 8700 2400 l
 cp gs col0 s gr 
% Polyline
n 9450 1650 m 10200 1650 l 10200 2400 l 9450 2400 l
 cp gs col0 s gr 
% Polyline
n 10200 1650 m 10950 1650 l 10950 2400 l 10200 2400 l
 cp gs col0 s gr 
% Polyline
n 10950 1650 m 11700 1650 l 11700 2400 l 10950 2400 l
 cp gs col0 s gr 
% Polyline
n 11700 1650 m 12450 1650 l 12450 2400 l 11700 2400 l
 cp gs col0 s gr 
% Polyline
n 1800 600 m 2550 600 l 2550 1350 l 1800 1350 l
 cp gs col0 s gr 
% Polyline
n 2550 600 m 3300 600 l 3300 1350 l 2550 1350 l
 cp gs col0 s gr 
% Polyline
n 3300 600 m 4500 600 l 4500 1350 l 3300 1350 l
 cp gs col0 s gr 
% Polyline
n 4500 600 m 5100 600 l 5100 1350 l 4500 1350 l
 cp gs col0 s gr 
% Polyline
n 8700 600 m 9450 600 l 9450 1350 l 8700 1350 l
 cp gs col0 s gr 
% Polyline
n 9450 600 m 10200 600 l 10200 1350 l 9450 1350 l
 cp gs col0 s gr 
% Polyline
n 10200 600 m 13500 600 l 13500 1350 l 10200 1350 l
 cp gs col0 s gr 
% Polyline
n 1800 8550 m 4050 8550 l 4050 9300 l 1800 9300 l
 cp gs col0 s gr 
% Polyline
n 4050 8550 m 6300 8550 l 6300 9300 l 4050 9300 l
 cp gs col0 s gr 
% Polyline
n 6300 8550 m 7050 8550 l 7050 9300 l 6300 9300 l
 cp gs col0 s gr 
% Polyline
n 7050 8550 m 7800 8550 l 7800 9300 l 7050 9300 l
 cp gs col0 s gr 
% Polyline
n 7800 8550 m 8550 8550 l 8550 9300 l 7800 9300 l
 cp gs col0 s gr 
% Polyline
n 6600 1650 m 7350 1650 l 7350 2400 l 6600 2400 l
 cp gs col0 s gr 
% Polyline
n 7950 600 m 8700 600 l 8700 1350 l 7950 1350 l
 cp gs col0 s gr 
% Polyline
n 5100 600 m 7350 600 l 7350 1350 l 5100 1350 l
 cp gs col0 s gr 
% Polyline
n 9150 8550 m 10950 8550 l 10950 9300 l 9150 9300 l
 cp gs col0 s gr 
% Polyline
n 10950 8550 m 13500 8550 l 13500 9300 l 10950 9300 l
 cp gs col0 s gr 
% Polyline
n 12450 7200 m 13500 7200 l 13500 8250 l 12450 8250 l
 cp gs col0 s gr 
% Polyline
n 12750 6450 m 13500 6450 l 13500 7200 l 12750 7200 l
 cp gs col0 s gr 
% Polyline
n 12750 5700 m 13500 5700 l 13500 6450 l 12750 6450 l
 cp gs col0 s gr 
% Polyline
n 12750 4950 m 13500 4950 l 13500 5700 l 12750 5700 l
 cp gs col0 s gr 
% Polyline
n 12750 4200 m 13500 4200 l 13500 4950 l 12750 4950 l
 cp gs col0 s gr 
% Polyline
n 12750 3450 m 13500 3450 l 13500 4200 l 12750 4200 l
 cp gs col0 s gr 
% Polyline
n 12750 2700 m 13500 2700 l 13500 3450 l 12750 3450 l
 cp gs col0 s gr 
% Polyline
n 12450 1650 m 13500 1650 l 13500 2700 l 12450 2700 l
 cp gs col0 s gr 
% Polyline
n 7950 1650 m 8700 1650 l 8700 2400 l 7950 2400 l
 cp gs col0 s gr 
% Polyline
n 7350 1650 m 7950 1650 l 7950 2400 l 7350 2400 l
 cp gs col0 s gr 
% here ends figure;
% 
% here starts figure with depth 25
/Times-Roman-iso ff 200.00 scf sf
2625 2925 m
gs 1 -1 sc (105\) Masterstudents) col0 sh gr
/Times-Roman-iso ff 200.00 scf sf
2625 3225 m
gs 1 -1 sc (107\) J. Vink ) col0 sh gr
/Times-Roman-iso ff 200.00 scf sf
2625 3525 m
gs 1 -1 sc (113\) A. de Koter ) col0 sh gr
/Times-Roman-iso ff 200.00 scf sf
2625 3825 m
gs 1 -1 sc (115\) S. Markoff ) col0 sh gr
/Times-Roman-iso ff 200.00 scf sf
2625 4125 m
gs 1 -1 sc (116\) L. Kaper ) col0 sh gr
/Times-Roman-iso ff 200.00 scf sf
2625 4425 m
gs 1 -1 sc (118\) D. Berge ) col0 sh gr
/Times-Roman-iso ff 200.00 scf sf
2625 4725 m
gs 1 -1 sc (119\) H. Henrichs) col0 sh gr
/Times-Roman-iso ff 200.00 scf sf
2625 5025 m
gs 1 -1 sc (125\) G. Hammerschlag ) col0 sh gr
/Times-Roman-iso ff 200.00 scf sf
2625 5325 m
gs 1 -1 sc (127\) B. Lemasle) col0 sh gr
/Times-Roman-iso ff 200.00 scf sf
2625 5625 m
gs 1 -1 sc (127\) C. d'Angelo ) col0 sh gr
/Times-Roman-iso ff 200.00 scf sf
2625 5925 m
gs 1 -1 sc (127\) J. Fridrikson) col0 sh gr
/Times-Roman-iso ff 200.00 scf sf
2625 6225 m
gs 1 -1 sc (127\) M. Bryan) col0 sh gr
/Times-Roman-iso ff 200.00 scf sf
2625 6525 m
gs 1 -1 sc (128\) L. Heil) col0 sh gr
/Times-Roman-iso ff 200.00 scf sf
2625 6825 m
gs 1 -1 sc (128\) D. Huppenkothen) col0 sh gr
/Times-Roman-iso ff 200.00 scf sf
2625 7125 m
gs 1 -1 sc (128a\) T. Stolker) col0 sh gr
/Times-Roman-iso ff 200.00 scf sf
4575 5025 m
gs 1 -1 sc (128a\) A. Ingram) col0 sh gr
/Times-Roman-iso ff 200.00 scf sf
4575 4725 m
gs 1 -1 sc (128a\) A. Chiotellis) col0 sh gr
/Times-Roman-iso ff 200.00 scf sf
4575 4425 m
gs 1 -1 sc (128a\) C. de Jesus Silva) col0 sh gr
/Times-Roman-iso ff 200.00 scf sf
4575 4125 m
gs 1 -1 sc (128a\) P. Prasad) col0 sh gr
/Times-Roman-iso ff 200.00 scf sf
4575 3825 m
gs 1 -1 sc (128a\) L. Ellerbroek) col0 sh gr
/Times-Roman-iso ff 200.00 scf sf
4575 3525 m
gs 1 -1 sc (128a\) S. Vats) col0 sh gr
/Times-Roman-iso ff 200.00 scf sf
4575 3225 m
gs 1 -1 sc (128a\) T. Coenen) col0 sh gr
/Times-Roman-iso ff 200.00 scf sf
4575 2925 m
gs 1 -1 sc (128a\) S. Broersen) col0 sh gr
/Times-Roman-iso ff 200.00 scf sf
4575 5325 m
gs 1 -1 sc (129\) M. v.d. Klis) col0 sh gr
/Times-Roman-iso ff 200.00 scf sf
4575 5625 m
gs 1 -1 sc (130\) M. v.d. Berg) col0 sh gr
/Times-Roman-iso ff 200.00 scf sf
4575 5925 m
gs 1 -1 sc (131\) R. Wijers) col0 sh gr
/Times-Roman-iso ff 200.00 scf sf
4575 6225 m
gs 1 -1 sc (132\) R. Waters) col0 sh gr
/Times-Roman-iso ff 200.00 scf sf
4575 6525 m
gs 1 -1 sc (132\) J. Hovenier) col0 sh gr
/Times-Roman-iso ff 200.00 scf sf
4575 6825 m
gs 1 -1 sc (133\) Nova Info Centre) col0 sh gr
/Times-Roman-iso ff 200.00 scf sf
4575 7125 m
gs 1 -1 sc (134\) A. Watts) col0 sh gr
/Times-Roman-iso ff 200.00 scf sf
6525 6825 m
gs 1 -1 sc (141\) M. Hoekstra) col0 sh gr
/Times-Roman-iso ff 200.00 scf sf
6525 7125 m
gs 1 -1 sc (141\) S. Franzen) col0 sh gr
/Times-Roman-iso ff 200.00 scf sf
6525 6525 m
gs 1 -1 sc (141\) Secretariat) col0 sh gr
/Times-Roman-iso ff 200.00 scf sf
6525 6225 m
gs 1 -1 sc (140\) M. Kranenburg) col0 sh gr
/Times-Roman-iso ff 200.00 scf sf
6525 5925 m
gs 1 -1 sc (140\) L. Stolte) col0 sh gr
/Times-Roman-iso ff 200.00 scf sf
6525 5625 m
gs 1 -1 sc (139\) E. Meurs) col0 sh gr
/Times-Roman-iso ff 200.00 scf sf
6525 5325 m
gs 1 -1 sc (139\) B. Scheers) col0 sh gr
/Times-Roman-iso ff 200.00 scf sf
6525 5025 m
gs 1 -1 sc (139\) C. Ceccobello) col0 sh gr
/Times-Roman-iso ff 200.00 scf sf
6525 4725 m
gs 1 -1 sc (139\) N. Rea) col0 sh gr
/Times-Roman-iso ff 200.00 scf sf
6525 4425 m
gs 1 -1 sc (138\) M. Heemskerk) col0 sh gr
/Times-Roman-iso ff 200.00 scf sf
6525 4125 m
gs 1 -1 sc (137\) M. Middleton) col0 sh gr
/Times-Roman-iso ff 200.00 scf sf
6525 3825 m
gs 1 -1 sc (137\) M. Min) col0 sh gr
/Times-Roman-iso ff 200.00 scf sf
6525 3525 m
gs 1 -1 sc (137\) A. v.d. Horst) col0 sh gr
/Times-Roman-iso ff 200.00 scf sf
6525 3225 m
gs 1 -1 sc (136\) C. Dominik) col0 sh gr
/Times-Roman-iso ff 200.00 scf sf
6525 2925 m
gs 1 -1 sc (135\) LEA) col0 sh gr
/Times-Roman-iso ff 200.00 scf sf
8325 7125 m
gs 1 -1 sc (144\) O. Hartoog) col0 sh gr
/Times-Roman-iso ff 200.00 scf sf
8325 5325 m
gs 1 -1 sc (144\) D. Antonopoulou) col0 sh gr
/Times-Roman-iso ff 200.00 scf sf
8325 5025 m
gs 1 -1 sc (144\) R. Connors) col0 sh gr
/Times-Roman-iso ff 200.00 scf sf
8325 4725 m
gs 1 -1 sc (143\) T. d. Jong) col0 sh gr
/Times-Roman-iso ff 200.00 scf sf
8325 4425 m
gs 1 -1 sc (143\) E. v.d. Heuvel) col0 sh gr
/Times-Roman-iso ff 200.00 scf sf
8325 4125 m
gs 1 -1 sc (143\) Emeriti) col0 sh gr
/Times-Roman-iso ff 200.00 scf sf
8325 3825 m
gs 1 -1 sc (142\) A. Rowlinson) col0 sh gr
/Times-Roman-iso ff 200.00 scf sf
8325 3525 m
gs 1 -1 sc (142\) Y. Cendes) col0 sh gr
/Times-Roman-iso ff 200.00 scf sf
8325 3225 m
gs 1 -1 sc (142\) F. Huizinga) col0 sh gr
/Times-Roman-iso ff 200.00 scf sf
8325 2925 m
gs 1 -1 sc (142\) G. Molenaar) col0 sh gr
/Times-Roman-iso ff 200.00 scf sf
8325 5625 m
gs 1 -1 sc (144\) J. v. Leeuwen) col0 sh gr
/Times-Roman-iso ff 200.00 scf sf
8325 5925 m
gs 1 -1 sc (144\) J. Hessels) col0 sh gr
/Times-Roman-iso ff 200.00 scf sf
8325 6225 m
gs 1 -1 sc (144\) S. Rapisarda) col0 sh gr
/Times-Roman-iso ff 200.00 scf sf
8325 6525 m
gs 1 -1 sc (144\) F. Tramper) col0 sh gr
/Times-Roman-iso ff 200.00 scf sf
8325 6825 m
gs 1 -1 sc (144\) P. Bult) col0 sh gr
/Times-Roman-iso ff 200.00 scf sf
10275 5025 m
gs 1 -1 sc (144a\) T. C. Khouri Silva) col0 sh gr
/Times-Roman-iso ff 200.00 scf sf
10275 4725 m
gs 1 -1 sc (144a\) M. Armas Padilla) col0 sh gr
/Times-Roman-iso ff 200.00 scf sf
10275 4425 m
gs 1 -1 sc (144a\) A. Stevens) col0 sh gr
/Times-Roman-iso ff 200.00 scf sf
10275 4125 m
gs 1 -1 sc (144a\) Y. Cavecchi) col0 sh gr
/Times-Roman-iso ff 200.00 scf sf
10275 3825 m
gs 1 -1 sc (144a\) O. Ramirez) col0 sh gr
/Times-Roman-iso ff 200.00 scf sf
10275 3525 m
gs 1 -1 sc (144a\) D. Carbone) col0 sh gr
/Times-Roman-iso ff 200.00 scf sf
10275 3225 m
gs 1 -1 sc (144a\) T. v. Putten) col0 sh gr
/Times-Roman-iso ff 200.00 scf sf
10275 7125 m
gs 1 -1 sc (149\) S. Dibi-Rousselle) col0 sh gr
/Times-Roman-iso ff 200.00 scf sf
10275 6825 m
gs 1 -1 sc (149\) M. Kalamkar) col0 sh gr
/Times-Roman-iso ff 200.00 scf sf
10275 6525 m
gs 1 -1 sc (147\) M. Wise) col0 sh gr
/Times-Roman-iso ff 200.00 scf sf
10275 6225 m
gs 1 -1 sc (147\) J. Swinbank) col0 sh gr
/Times-Roman-iso ff 200.00 scf sf
10275 5925 m
gs 1 -1 sc (146\) R. Wijnands) col0 sh gr
/Times-Roman-iso ff 200.00 scf sf
10275 5625 m
gs 1 -1 sc (145\) P. Uttley) col0 sh gr
/Times-Roman-iso ff 200.00 scf sf
10275 5325 m
gs 1 -1 sc (144a\) R. v. Lieshout) col0 sh gr
/Times-Roman-iso ff 200.00 scf sf
10275 2925 m
gs 1 -1 sc (144\) L. Sandoval) col0 sh gr
% here ends figure;
% 
% here starts figure with depth 20
% Polyline
0 slj
0 slc
15.000 slw
n 1905 1950 m 1800 1950 1800 2295 105 arcto 4 {pop} repeat
  1800 2400 2145 2400 105 arcto 4 {pop} repeat
  2250 2400 2250 2055 105 arcto 4 {pop} repeat
  2250 1950 1905 1950 105 arcto 4 {pop} repeat
 cp gs col7 1.00 shd ef gr gs col0 s gr 
% Polyline
n 1755 2850 m 1650 2850 1650 3195 105 arcto 4 {pop} repeat
  1650 3300 1995 3300 105 arcto 4 {pop} repeat
  2100 3300 2100 2955 105 arcto 4 {pop} repeat
  2100 2850 1755 2850 105 arcto 4 {pop} repeat
 cp gs col7 1.00 shd ef gr gs col0 s gr 
% Polyline
n 1755 3600 m 1650 3600 1650 3945 105 arcto 4 {pop} repeat
  1650 4050 1995 4050 105 arcto 4 {pop} repeat
  2100 4050 2100 3705 105 arcto 4 {pop} repeat
  2100 3600 1755 3600 105 arcto 4 {pop} repeat
 cp gs col7 1.00 shd ef gr gs col0 s gr 
% Polyline
n 1755 4350 m 1650 4350 1650 4695 105 arcto 4 {pop} repeat
  1650 4800 1995 4800 105 arcto 4 {pop} repeat
  2100 4800 2100 4455 105 arcto 4 {pop} repeat
  2100 4350 1755 4350 105 arcto 4 {pop} repeat
 cp gs col7 1.00 shd ef gr gs col0 s gr 
% Polyline
n 1755 5100 m 1650 5100 1650 5445 105 arcto 4 {pop} repeat
  1650 5550 1995 5550 105 arcto 4 {pop} repeat
  2100 5550 2100 5205 105 arcto 4 {pop} repeat
  2100 5100 1755 5100 105 arcto 4 {pop} repeat
 cp gs col7 1.00 shd ef gr gs col0 s gr 
% Polyline
n 1755 5850 m 1650 5850 1650 6195 105 arcto 4 {pop} repeat
  1650 6300 1995 6300 105 arcto 4 {pop} repeat
  2100 6300 2100 5955 105 arcto 4 {pop} repeat
  2100 5850 1755 5850 105 arcto 4 {pop} repeat
 cp gs col7 1.00 shd ef gr gs col0 s gr 
% Polyline
n 1755 6600 m 1650 6600 1650 6945 105 arcto 4 {pop} repeat
  1650 7050 1995 7050 105 arcto 4 {pop} repeat
  2100 7050 2100 6705 105 arcto 4 {pop} repeat
  2100 6600 1755 6600 105 arcto 4 {pop} repeat
 cp gs col7 1.00 shd ef gr gs col0 s gr 
% Polyline
n 1905 7500 m 1800 7500 1800 7845 105 arcto 4 {pop} repeat
  1800 7950 2145 7950 105 arcto 4 {pop} repeat
  2250 7950 2250 7605 105 arcto 4 {pop} repeat
  2250 7500 1905 7500 105 arcto 4 {pop} repeat
 cp gs col7 1.00 shd ef gr gs col0 s gr 
% Polyline
n 705 2100 m 600 2100 600 2445 105 arcto 4 {pop} repeat
  600 2550 945 2550 105 arcto 4 {pop} repeat
  1050 2550 1050 2205 105 arcto 4 {pop} repeat
  1050 2100 705 2100 105 arcto 4 {pop} repeat
 cp gs col7 1.00 shd ef gr gs col0 s gr 
% Polyline
n 705 4350 m 600 4350 600 4695 105 arcto 4 {pop} repeat
  600 4800 945 4800 105 arcto 4 {pop} repeat
  1050 4800 1050 4455 105 arcto 4 {pop} repeat
  1050 4350 705 4350 105 arcto 4 {pop} repeat
 cp gs col7 1.00 shd ef gr gs col0 s gr 
% Polyline
n 705 5100 m 600 5100 600 5445 105 arcto 4 {pop} repeat
  600 5550 945 5550 105 arcto 4 {pop} repeat
  1050 5550 1050 5205 105 arcto 4 {pop} repeat
  1050 5100 705 5100 105 arcto 4 {pop} repeat
 cp gs col7 1.00 shd ef gr gs col0 s gr 
% Polyline
n 705 5850 m 600 5850 600 6195 105 arcto 4 {pop} repeat
  600 6300 945 6300 105 arcto 4 {pop} repeat
  1050 6300 1050 5955 105 arcto 4 {pop} repeat
  1050 5850 705 5850 105 arcto 4 {pop} repeat
 cp gs col7 1.00 shd ef gr gs col0 s gr 
% Polyline
n 705 7350 m 600 7350 600 7695 105 arcto 4 {pop} repeat
  600 7800 945 7800 105 arcto 4 {pop} repeat
  1050 7800 1050 7455 105 arcto 4 {pop} repeat
  1050 7350 705 7350 105 arcto 4 {pop} repeat
 cp gs col7 1.00 shd ef gr gs col0 s gr 
% Polyline
n 705 750 m 600 750 600 1095 105 arcto 4 {pop} repeat
  600 1200 1095 1200 105 arcto 4 {pop} repeat
  1200 1200 1200 855 105 arcto 4 {pop} repeat
  1200 750 705 750 105 arcto 4 {pop} repeat
 cp gs col7 1.00 shd ef gr gs col0 s gr 
% Polyline
n 11205 1800 m 11100 1800 11100 2145 105 arcto 4 {pop} repeat
  11100 2250 11445 2250 105 arcto 4 {pop} repeat
  11550 2250 11550 1905 105 arcto 4 {pop} repeat
  11550 1800 11205 1800 105 arcto 4 {pop} repeat
 cp gs col7 1.00 shd ef gr gs col0 s gr 
% Polyline
n 8205 1800 m 8100 1800 8100 2145 105 arcto 4 {pop} repeat
  8100 2250 8445 2250 105 arcto 4 {pop} repeat
  8550 2250 8550 1905 105 arcto 4 {pop} repeat
  8550 1800 8205 1800 105 arcto 4 {pop} repeat
 cp gs col7 1.00 shd ef gr gs col0 s gr 
% Polyline
n 6855 1800 m 6750 1800 6750 2145 105 arcto 4 {pop} repeat
  6750 2250 7095 2250 105 arcto 4 {pop} repeat
  7200 2250 7200 1905 105 arcto 4 {pop} repeat
  7200 1800 6855 1800 105 arcto 4 {pop} repeat
 cp gs col7 1.00 shd ef gr gs col0 s gr 
% Polyline
n 6105 1800 m 6000 1800 6000 2145 105 arcto 4 {pop} repeat
  6000 2250 6345 2250 105 arcto 4 {pop} repeat
  6450 2250 6450 1905 105 arcto 4 {pop} repeat
  6450 1800 6105 1800 105 arcto 4 {pop} repeat
 cp gs col7 1.00 shd ef gr gs col0 s gr 
% Polyline
n 5355 1800 m 5250 1800 5250 2145 105 arcto 4 {pop} repeat
  5250 2250 5595 2250 105 arcto 4 {pop} repeat
  5700 2250 5700 1905 105 arcto 4 {pop} repeat
  5700 1800 5355 1800 105 arcto 4 {pop} repeat
 cp gs col7 1.00 shd ef gr gs col0 s gr 
% Polyline
n 2805 1800 m 2700 1800 2700 2145 105 arcto 4 {pop} repeat
  2700 2250 3045 2250 105 arcto 4 {pop} repeat
  3150 2250 3150 1905 105 arcto 4 {pop} repeat
  3150 1800 2805 1800 105 arcto 4 {pop} repeat
 cp gs col7 1.00 shd ef gr gs col0 s gr 
% Polyline
n 2055 750 m 1950 750 1950 1095 105 arcto 4 {pop} repeat
  1950 1200 2295 1200 105 arcto 4 {pop} repeat
  2400 1200 2400 855 105 arcto 4 {pop} repeat
  2400 750 2055 750 105 arcto 4 {pop} repeat
 cp gs col7 1.00 shd ef gr gs col0 s gr 
% Polyline
n 2805 7650 m 2700 7650 2700 7995 105 arcto 4 {pop} repeat
  2700 8100 3045 8100 105 arcto 4 {pop} repeat
  3150 8100 3150 7755 105 arcto 4 {pop} repeat
  3150 7650 2805 7650 105 arcto 4 {pop} repeat
 cp gs col7 1.00 shd ef gr gs col0 s gr 
% Polyline
n 3555 7650 m 3450 7650 3450 7995 105 arcto 4 {pop} repeat
  3450 8100 3795 8100 105 arcto 4 {pop} repeat
  3900 8100 3900 7755 105 arcto 4 {pop} repeat
  3900 7650 3555 7650 105 arcto 4 {pop} repeat
 cp gs col7 1.00 shd ef gr gs col0 s gr 
% Polyline
n 4305 7650 m 4200 7650 4200 7995 105 arcto 4 {pop} repeat
  4200 8100 4545 8100 105 arcto 4 {pop} repeat
  4650 8100 4650 7755 105 arcto 4 {pop} repeat
  4650 7650 4305 7650 105 arcto 4 {pop} repeat
 cp gs col7 1.00 shd ef gr gs col0 s gr 
% Polyline
n 5055 7650 m 4950 7650 4950 7995 105 arcto 4 {pop} repeat
  4950 8100 5295 8100 105 arcto 4 {pop} repeat
  5400 8100 5400 7755 105 arcto 4 {pop} repeat
  5400 7650 5055 7650 105 arcto 4 {pop} repeat
 cp gs col7 1.00 shd ef gr gs col0 s gr 
% Polyline
n 2655 8700 m 2550 8700 2550 9045 105 arcto 4 {pop} repeat
  2550 9150 3045 9150 105 arcto 4 {pop} repeat
  3150 9150 3150 8805 105 arcto 4 {pop} repeat
  3150 8700 2655 8700 105 arcto 4 {pop} repeat
 cp gs col7 1.00 shd ef gr gs col0 s gr 
% Polyline
n 12855 1950 m 12750 1950 12750 2295 105 arcto 4 {pop} repeat
  12750 2400 13095 2400 105 arcto 4 {pop} repeat
  13200 2400 13200 2055 105 arcto 4 {pop} repeat
  13200 1950 12855 1950 105 arcto 4 {pop} repeat
 cp gs col7 1.00 shd ef gr gs col0 s gr 
% Polyline
n 705 8700 m 600 8700 600 9045 105 arcto 4 {pop} repeat
  600 9150 945 9150 105 arcto 4 {pop} repeat
  1050 9150 1050 8805 105 arcto 4 {pop} repeat
  1050 8700 705 8700 105 arcto 4 {pop} repeat
 cp gs col7 1.00 shd ef gr gs col0 s gr 
% Polyline
n 630 6525 m 525 6525 525 7020 105 arcto 4 {pop} repeat
  525 7125 1020 7125 105 arcto 4 {pop} repeat
  1125 7125 1125 6630 105 arcto 4 {pop} repeat
  1125 6525 630 6525 105 arcto 4 {pop} repeat
 cp gs col7 1.00 shd ef gr gs col0 s gr 
% Polyline
n 630 3525 m 525 3525 525 4020 105 arcto 4 {pop} repeat
  525 4125 1020 4125 105 arcto 4 {pop} repeat
  1125 4125 1125 3630 105 arcto 4 {pop} repeat
  1125 3525 630 3525 105 arcto 4 {pop} repeat
 cp gs col7 1.00 shd ef gr gs col0 s gr 
% Polyline
n 630 2775 m 525 2775 525 3270 105 arcto 4 {pop} repeat
  525 3375 1020 3375 105 arcto 4 {pop} repeat
  1125 3375 1125 2880 105 arcto 4 {pop} repeat
  1125 2775 630 2775 105 arcto 4 {pop} repeat
 cp gs col7 1.00 shd ef gr gs col0 s gr 
% Polyline
n 5505 750 m 5400 750 5400 1095 105 arcto 4 {pop} repeat
  5400 1200 6945 1200 105 arcto 4 {pop} repeat
  7050 1200 7050 855 105 arcto 4 {pop} repeat
  7050 750 5505 750 105 arcto 4 {pop} repeat
 cp gs col7 1.00 shd ef gr gs col0 s gr 
% Polyline
n 7530 1800 m 7425 1800 7425 2145 105 arcto 4 {pop} repeat
  7425 2250 7770 2250 105 arcto 4 {pop} repeat
  7875 2250 7875 1905 105 arcto 4 {pop} repeat
  7875 1800 7530 1800 105 arcto 4 {pop} repeat
 cp gs col7 1.00 shd ef gr gs col0 s gr 
% Polyline
n 8205 750 m 8100 750 8100 1095 105 arcto 4 {pop} repeat
  8100 1200 8445 1200 105 arcto 4 {pop} repeat
  8550 1200 8550 855 105 arcto 4 {pop} repeat
  8550 750 8205 750 105 arcto 4 {pop} repeat
 cp gs col7 1.00 shd ef gr gs col0 s gr 
% Polyline
n 8955 750 m 8850 750 8850 1095 105 arcto 4 {pop} repeat
  8850 1200 9195 1200 105 arcto 4 {pop} repeat
  9300 1200 9300 855 105 arcto 4 {pop} repeat
  9300 750 8955 750 105 arcto 4 {pop} repeat
 cp gs col7 1.00 shd ef gr gs col0 s gr 
% Polyline
n 3780 750 m 3675 750 3675 1095 105 arcto 4 {pop} repeat
  3675 1200 4020 1200 105 arcto 4 {pop} repeat
  4125 1200 4125 855 105 arcto 4 {pop} repeat
  4125 750 3780 750 105 arcto 4 {pop} repeat
 cp gs col7 1.00 shd ef gr gs col0 s gr 
% here ends figure;
% 
% here starts figure with depth 10
/Times-Bold-iso ff 200.00 scf sf
1875 2250 m
gs 1 -1 sc (127) col4 sh gr
/Times-Bold-iso ff 200.00 scf sf
1725 3150 m
gs 1 -1 sc (130) col4 sh gr
/Times-Bold-iso ff 200.00 scf sf
1725 3900 m
gs 1 -1 sc (132) col4 sh gr
/Times-Bold-iso ff 200.00 scf sf
1725 4650 m
gs 1 -1 sc (134) col4 sh gr
/Times-Bold-iso ff 200.00 scf sf
1725 5400 m
gs 1 -1 sc (136) col4 sh gr
/Times-Bold-iso ff 200.00 scf sf
1725 6150 m
gs 1 -1 sc (138) col4 sh gr
/Times-Bold-iso ff 200.00 scf sf
1725 6900 m
gs 1 -1 sc (140) col4 sh gr
/Times-Bold-iso ff 200.00 scf sf
1875 7800 m
gs 1 -1 sc (142) col4 sh gr
/Times-Bold-iso ff 200.00 scf sf
675 2400 m
gs 1 -1 sc (129) col4 sh gr
/Times-Bold-iso ff 200.00 scf sf
675 4650 m
gs 1 -1 sc (135) col4 sh gr
/Times-Bold-iso ff 200.00 scf sf
675 5400 m
gs 1 -1 sc (137) col4 sh gr
/Times-Bold-iso ff 200.00 scf sf
675 6150 m
gs 1 -1 sc (139) col4 sh gr
/Times-Bold-iso ff 200.00 scf sf
675 7650 m
gs 1 -1 sc (143) col4 sh gr
/Times-Bold-iso ff 200.00 scf sf
675 1050 m
gs 1 -1 sc (128a) col4 sh gr
/Times-Bold-iso ff 200.00 scf sf
11175 2100 m
gs 1 -1 sc (107) col4 sh gr
/Times-Bold-iso ff 200.00 scf sf
8175 2100 m
gs 1 -1 sc (113) col4 sh gr
/Times-Bold-iso ff 200.00 scf sf
7500 2100 m
gs 1 -1 sc (115) col4 sh gr
/Times-Bold-iso ff 200.00 scf sf
6825 2100 m
gs 1 -1 sc (116) col4 sh gr
/Times-Bold-iso ff 200.00 scf sf
6075 2100 m
gs 1 -1 sc (118) col4 sh gr
/Times-Bold-iso ff 200.00 scf sf
5325 2100 m
gs 1 -1 sc (119) col4 sh gr
/Times-Bold-iso ff 200.00 scf sf
2775 2100 m
gs 1 -1 sc (125) col4 sh gr
/Times-Bold-iso ff 200.00 scf sf
2025 1050 m
gs 1 -1 sc (128) col4 sh gr
/Times-Bold-iso ff 200.00 scf sf
2775 7950 m
gs 1 -1 sc (145) col4 sh gr
/Times-Bold-iso ff 200.00 scf sf
3525 7950 m
gs 1 -1 sc (146) col4 sh gr
/Times-Bold-iso ff 200.00 scf sf
4275 7950 m
gs 1 -1 sc (147) col4 sh gr
/Times-Bold-iso ff 200.00 scf sf
5025 7950 m
gs 1 -1 sc (149) col4 sh gr
/Times-Bold-iso ff 200.00 scf sf
2625 9000 m
gs 1 -1 sc (144a) col4 sh gr
/Times-Bold-iso ff 200.00 scf sf
12825 2250 m
gs 1 -1 sc (105) col4 sh gr
/Times-Bold-iso ff 200.00 scf sf
675 9000 m
gs 1 -1 sc (144) col4 sh gr
/Times-Bold-iso ff 200.00 scf sf
675 6750 m
gs 1 -1 sc (141) col4 sh gr
/Times-Bold-iso ff 200.00 scf sf
675 6975 m
gs 1 -1 sc (Secr) col4 sh gr
/Times-Bold-iso ff 200.00 scf sf
675 3750 m
gs 1 -1 sc (133) col4 sh gr
/Times-Bold-iso ff 200.00 scf sf
675 3975 m
gs 1 -1 sc (Nic) col4 sh gr
/Times-Bold-iso ff 200.00 scf sf
675 3000 m
gs 1 -1 sc (131) col4 sh gr
/Times-Bold-iso ff 200.00 scf sf
675 3225 m
gs 1 -1 sc (Dir) col4 sh gr
/Times-Bold-iso ff 200.00 scf sf
5550 1050 m
gs 1 -1 sc (Common Room) col4 sh gr
/Times-Bold-iso ff 200.00 scf sf
3750 1050 m
gs 1 -1 sc (124) col4 sh gr
/Times-Bold-iso ff 200.00 scf sf
8175 1050 m
gs 1 -1 sc (114) col4 sh gr
/Times-Bold-iso ff 200.00 scf sf
8925 1050 m
gs 1 -1 sc (112) col4 sh gr
% here ends figure;
$F2psEnd
rs
showpage
%%Trailer
%EOF
